[2018-11-05 07:00:02] local.ERROR: exception 'Symfony\Component\Debug\Exception\FatalErrorException' with message 'Class 'App\Libraries\Person' not found' in /usr/www/users/stmarkf/database.stmarks.org.za/app/Libraries/DailydevotionalPublish.php:166
Stack trace:
#0 {main}  
[2018-11-05 07:00:02] local.ERROR: exception 'Symfony\Component\Debug\Exception\FatalErrorException' with message 'Class 'App\Libraries\Person' not found' in /usr/www/users/stmarkf/database.stmarks.org.za/app/Libraries/DailydevotionalPublish.php:91
Stack trace:
#0 {main}  
